Stakeholder,Metric,Value - In Meeting with Drought Policy,Value without policy,GWDSS v1,
johnnoell,Average Total Storage,1.06522E+12,3377.794044,,
johnnoell,Minimum Spring Flow,-1363661.61,-0.004324143,,
johnnoell,Total Pumping Volume,-1622170899,-5.143870177,,
johnnoell,Wells Below Sat. Thickness Threshold,26,,,
jonbeall,Average Total Storage,1.12138E+12,3555.876862,1.11E+12,
jonbeall,Minimum Spring Flow,-1672172.736,-0.005302425,-1284563,
jonbeall,Total Pumping Volume,-1481149297,-4.696693611,-1.61E+09,
jonbeall,Wells Below Sat. Thickness Threshold,26,,,
jtstewart,Average Total Storage,1.26981E+12,4026.547412,1.27E+12,
jtstewart,Minimum Spring Flow,-2443321.5,-0.007747722,-2395461.5,
jtstewart,Total Pumping Volume (CF),"-1,539,781,396",-4.882614776,-1.61E+09,
jtstewart,Wells Below Sat. Thickness Threshold,24,,,
robbiebotto,Average Total Storage,1.18342E+12,3752.584906,,
robbiebotto,Minimum Spring Flow,-2007612.859,-0.006366099,,
robbiebotto,Total Pumping Volume,-1510537661,-4.789883501,,
robbiebotto,Wells Below Sat. Thickness Threshold,26,,,
terrymitchell,Average Total Storage,1.10371E+12,3499.833928,,
terrymitchell,Minimum Spring Flow,-1630619.454,-0.00517066,,
terrymitchell,Total Pumping Volume,-1476513400,-4.681993278,,
terrymitchell,Wells Below Sat. Thickness Threshold,26,,,
terrytull,Average Total Storage,1.06829E+12,3387.537532,,
terrytull,Minimum Spring Flow,-1374898.644,-0.004359775,,
terrytull,Total Pumping Volume,-1445776844,-4.584528297,,
terrytull,Wells Below Sat. Thickness Threshold,26,,,
